"1","12"
"01","12"
"2","13"
"02","13"
"3","14"
"03","14"
"4","15"
"04","15"
"5","16"
"05","16"
"6","17"
"06","17"
"7","18"
"07","18"
"8","19"
"08","19"
"9","20"
"09","20"
"10","21"
"11","22"
"12","23"

"[Bb][iı]r","12"
"[Iİiı]k[iı]","13"
"[UuÜü][çc]","14"
"[Dd][öo]r[td]","15"
"[Bb]e[şs]","16"
"[Aa]lt[ıi]","17"
"[Yy]ed[iı]","18"
"[Ss]ek[iı]z","19"
"[Dd]okuz","20"
"[Oo]n","21"
"[Oo]n [Bb][iı]r","22"
"[Oo]n [Iİiı]k[iı]","23"
